id,x.location,y.location,status,police unit
1,24,24,Unassigned,
2,46,47,Unassigned,
3,15,75,Unassigned,
4,76,43,Unassigned,
5,68,78,Unassigned,
6,85,65,Unassigned,
7,33,56,Unassigned,
8,45,25,Unassigned,
9,51,71,Unassigned,
10,50,94,Unassigned,
11,20,35,Unassigned,
12,56,98,Unassigned,
